Spacecraft: DefaultSat

Start Time (UTC)            Stop Time (UTC)               Duration (s)    Occ Body        Type        Event Number  Total Duration (s)
01 Jan 2023 00:24:03.051    01 Jan 2023 00:24:11.896      8.8443077286    Earth           Penumbra    1             2122.0845930
01 Jan 2023 00:24:11.896    01 Jan 2023 00:59:16.388      2104.4920879    Earth           Umbra       1             2122.0845930
01 Jan 2023 00:59:16.388    01 Jan 2023 00:59:25.136      8.7481973693    Earth           Penumbra    1             2122.0845930
01 Jan 2023 02:00:39.928    01 Jan 2023 02:00:48.772      8.8438984822    Earth           Penumbra    2             2122.0271222
01 Jan 2023 02:00:48.772    01 Jan 2023 02:35:53.207      2104.4355664    Earth           Umbra       2             2122.0271222
01 Jan 2023 02:35:53.207    01 Jan 2023 02:36:01.955      8.7476573652    Earth           Penumbra    2             2122.0271222
01 Jan 2023 03:37:16.883    01 Jan 2023 03:37:25.727      8.8437403785    Earth           Penumbra    3             2113.2427823
01 Jan 2023 03:37:25.727    01 Jan 2023 04:12:30.126      2104.3990419    Earth           Umbra       3             2113.2427823
01 Jan 2023 05:13:53.931    01 Jan 2023 05:14:02.775      8.8440572144    Earth           Penumbra    4             2121.9844113
01 Jan 2023 05:14:02.775    01 Jan 2023 05:49:07.167      2104.3924528    Earth           Umbra       4             2121.9844113
01 Jan 2023 05:49:07.167    01 Jan 2023 05:49:15.915      8.7479012785    Earth           Penumbra    4             2121.9844113
01 Jan 2023 06:50:39.811    01 Jan 2023 07:25:44.190      2104.3789750    Earth           Umbra       5             2113.1268558
01 Jan 2023 07:25:44.190    01 Jan 2023 07:25:52.938      8.7478808477    Earth           Penumbra    5             2113.1268558
01 Jan 2023 08:27:07.889    01 Jan 2023 08:27:16.732      8.8437545230    Earth           Penumbra    6             2113.1950199
01 Jan 2023 08:27:16.732    01 Jan 2023 09:02:21.084      2104.3512654    Earth           Umbra       6             2113.1950199
01 Jan 2023 10:03:44.765    01 Jan 2023 10:03:53.608      8.8434037403    Earth           Penumbra    7             2121.9128862
01 Jan 2023 10:03:53.608    01 Jan 2023 10:38:57.930      2104.3220112    Earth           Umbra       7             2121.9128862
01 Jan 2023 10:38:57.930    01 Jan 2023 10:39:06.678      8.7474712869    Earth           Penumbra    7             2121.9128862
01 Jan 2023 11:40:21.603    01 Jan 2023 11:40:30.446      8.8430036092    Earth           Penumbra    8             2121.8712506
01 Jan 2023 11:40:30.446    01 Jan 2023 12:15:34.727      2104.2810347    Earth           Umbra       8             2121.8712506
01 Jan 2023 12:15:34.727    01 Jan 2023 12:15:43.474      8.7472122861    Earth           Penumbra    8             2121.8712506
01 Jan 2023 13:16:58.442    01 Jan 2023 13:17:07.285      8.8428231888    Earth           Penumbra    9             2121.8440850
01 Jan 2023 13:17:07.285    01 Jan 2023 13:52:11.539      2104.2541658    Earth           Umbra       9             2121.8440850
01 Jan 2023 13:52:11.539    01 Jan 2023 13:52:20.286      8.7470959872    Earth           Penumbra    9             2121.8440850
01 Jan 2023 14:53:35.393    01 Jan 2023 14:53:44.237      8.8433738798    Earth           Penumbra    10            2121.8510133
01 Jan 2023 14:53:44.237    01 Jan 2023 15:28:48.497      2104.2604064    Earth           Umbra       10            2121.8510133
01 Jan 2023 15:28:48.497    01 Jan 2023 15:28:57.244      8.7472330313    Earth           Penumbra    10            2121.8510133
01 Jan 2023 16:30:12.300    01 Jan 2023 16:30:21.143      8.8436115067    Earth           Penumbra    11            2121.8424553
01 Jan 2023 16:30:21.143    01 Jan 2023 17:05:25.395      2104.2511820    Earth           Umbra       11            2121.8424553
01 Jan 2023 17:05:25.395    01 Jan 2023 17:05:34.142      8.7476617657    Earth           Penumbra    11            2121.8424553
01 Jan 2023 18:06:49.236    01 Jan 2023 18:06:58.080      8.8437843835    Earth           Penumbra    12            2121.8400023
01 Jan 2023 18:06:58.080    01 Jan 2023 18:42:02.328      2104.2479985    Earth           Umbra       12            2121.8400023
01 Jan 2023 18:42:02.328    01 Jan 2023 18:42:11.076      8.7482193718    Earth           Penumbra    12            2121.8400023
01 Jan 2023 19:43:26.178    01 Jan 2023 19:43:35.022      8.8440974476    Earth           Penumbra    13            2121.8563313
01 Jan 2023 19:43:35.022    01 Jan 2023 20:18:39.286      2104.2635999    Earth           Umbra       13            2121.8563313
01 Jan 2023 20:18:39.286    01 Jan 2023 20:18:48.035      8.7486339617    Earth           Penumbra    13            2121.8563313
01 Jan 2023 21:20:03.090    01 Jan 2023 21:20:11.934      8.8441820000    Earth           Penumbra    14            2121.8489853
01 Jan 2023 21:20:11.934    01 Jan 2023 21:55:16.190      2104.2561483    Earth           Umbra       14            2121.8489853
01 Jan 2023 21:55:16.190    01 Jan 2023 21:55:24.939      8.7486550212    Earth           Penumbra    14            2121.8489853
01 Jan 2023 22:56:48.847    01 Jan 2023 23:31:53.087      2104.2392378    Earth           Umbra       15            2112.9877806
01 Jan 2023 23:31:53.087    01 Jan 2023 23:32:01.835      8.7485428085    Earth           Penumbra    15            2112.9877806
02 Jan 2023 00:33:16.881    02 Jan 2023 00:33:25.726      8.8442106033    Earth           Penumbra    16            2121.8071255
02 Jan 2023 00:33:25.726    02 Jan 2023 01:08:29.940      2104.2146949    Earth           Umbra       16            2121.8071255
02 Jan 2023 01:08:29.940    02 Jan 2023 01:08:38.689      8.7482200004    Earth           Penumbra    16            2121.8071255
02 Jan 2023 02:09:53.746    02 Jan 2023 02:10:02.590      8.8437755825    Earth           Penumbra    17            2121.7472844
02 Jan 2023 02:10:02.590    02 Jan 2023 02:45:06.746      2104.1557924    Earth           Umbra       17            2121.7472844
02 Jan 2023 02:45:06.746    02 Jan 2023 02:45:15.494      8.7477164576    Earth           Penumbra    17            2121.7472844
02 Jan 2023 03:46:39.539    02 Jan 2023 04:21:43.663      2104.1239196    Earth           Umbra       18            2112.8717545
02 Jan 2023 04:21:43.663    02 Jan 2023 04:21:52.411      8.7478349567    Earth           Penumbra    18            2112.8717545
02 Jan 2023 05:23:07.737    02 Jan 2023 05:23:16.581      8.8439864921    Earth           Penumbra    19            2112.9611318
02 Jan 2023 05:23:16.581    02 Jan 2023 05:58:20.698      2104.1171453    Earth           Umbra       19            2112.9611318
02 Jan 2023 06:59:44.746    02 Jan 2023 06:59:53.590      8.8439965504    Earth           Penumbra    20            2121.6939353
02 Jan 2023 06:59:53.590    02 Jan 2023 07:34:57.692      2104.1019831    Earth           Umbra       20            2121.6939353
02 Jan 2023 07:34:57.692    02 Jan 2023 07:35:06.440      8.7479556561    Earth           Penumbra    20            2121.6939353
02 Jan 2023 08:36:21.648    02 Jan 2023 08:36:30.491      8.8436159072    Earth           Penumbra    21            2121.6652208
02 Jan 2023 08:36:30.491    02 Jan 2023 09:11:34.565      2104.0738189    Earth           Umbra       21            2121.6652208
02 Jan 2023 09:11:34.565    02 Jan 2023 09:11:43.313      8.7477859226    Earth           Penumbra    21            2121.6652208
02 Jan 2023 10:12:58.505    02 Jan 2023 10:13:07.348      8.8432572666    Earth           Penumbra    22            2121.6340225
02 Jan 2023 10:13:07.348    02 Jan 2023 10:48:11.391      2104.0432317    Earth           Umbra       22            2121.6340225
02 Jan 2023 10:48:11.391    02 Jan 2023 10:48:20.139      8.7475335225    Earth           Penumbra    22            2121.6340225
02 Jan 2023 11:49:35.327    02 Jan 2023 11:49:44.170      8.8428687654    Earth           Penumbra    23            2121.5924007
02 Jan 2023 11:49:44.170    02 Jan 2023 12:24:48.172      2104.0022483    Earth           Umbra       23            2121.5924007
02 Jan 2023 12:24:48.172    02 Jan 2023 12:24:56.920      8.7472836371    Earth           Penumbra    23            2121.5924007
02 Jan 2023 13:26:12.156    02 Jan 2023 13:26:20.999      8.8427263778    Earth           Penumbra    24            2121.5677560
02 Jan 2023 13:26:20.999    02 Jan 2023 14:01:24.977      2103.9778428    Earth           Umbra       24            2121.5677560
02 Jan 2023 14:01:24.977    02 Jan 2023 14:01:33.724      8.7471868261    Earth           Penumbra    24            2121.5677560
02 Jan 2023 15:02:49.100    02 Jan 2023 15:02:57.943      8.8433015859    Earth           Penumbra    25            2121.5758158
02 Jan 2023 15:02:57.943    02 Jan 2023 15:38:01.928      2103.9851608    Earth           Umbra       25            2121.5758158
02 Jan 2023 15:38:01.928    02 Jan 2023 15:38:10.676      8.7473534164    Earth           Penumbra    25            2121.5758158
02 Jan 2023 16:39:25.987    02 Jan 2023 16:39:34.830      8.8435052661    Earth           Penumbra    26            2121.5649601
02 Jan 2023 16:39:34.830    02 Jan 2023 17:14:38.804      2103.9736466    Earth           Umbra       26            2121.5649601
02 Jan 2023 17:14:38.804    02 Jan 2023 17:14:47.552      8.7478082394    Earth           Penumbra    26            2121.5649601
02 Jan 2023 18:16:02.912    02 Jan 2023 18:16:11.756      8.8436721708    Earth           Penumbra    27            2121.5650025
02 Jan 2023 18:16:11.756    02 Jan 2023 18:51:15.729      2103.9729620    Earth           Umbra       27            2121.5650025
02 Jan 2023 18:51:15.729    02 Jan 2023 18:51:24.477      8.7483683601    Earth           Penumbra    27            2121.5650025
02 Jan 2023 19:52:39.840    02 Jan 2023 19:52:48.684      8.8439899497    Earth           Penumbra    28            2121.5806281
02 Jan 2023 19:52:48.684    02 Jan 2023 20:27:52.671      2103.9878907    Earth           Umbra       28            2121.5806281
02 Jan 2023 20:27:52.671    02 Jan 2023 20:28:01.420      8.7487474317    Earth           Penumbra    28            2121.5806281
02 Jan 2023 21:29:16.733    02 Jan 2023 21:29:25.577      8.8440496707    Earth           Penumbra    29            2121.5706000
02 Jan 2023 21:29:25.577    02 Jan 2023 22:04:29.555      2103.9777997    Earth           Umbra       29            2121.5706000
02 Jan 2023 22:04:29.555    02 Jan 2023 22:04:38.304      8.7487505749    Earth           Penumbra    29            2121.5706000
02 Jan 2023 23:05:53.631    02 Jan 2023 23:06:02.476      8.8441266795    Earth           Penumbra    30            2121.5536062
02 Jan 2023 23:06:02.476    02 Jan 2023 23:41:06.436      2103.9608487    Earth           Umbra       30            2121.5536062
02 Jan 2023 23:41:06.436    02 Jan 2023 23:41:15.185      8.7486308184    Earth           Penumbra    30            2121.5536062

Number of individual events : 84
Number of total events      : 30
Maximum duration (s)        :   2122.0845930
Maximum duration at the 1st eclipse.


